chisel/test_run_dir/must_runs_UartRx/UartEchoback.vcd
$date
2024-12-07T14:26+0000
$end
$version
0.2
$end
$comment

$end
$timescale 1ns  $end
$scope module UartEchoback $end
 $var wire 1 ) rx $end
 $var wire 1 * io_overrun $end
 $var wire 1 , tx $end
 $var wire 1 0 io_dout_valid $end
 $var wire 1 @ io_din_valid $end
 $var wire 1 C reset $end
 $var wire 1 D io_din_ready $end
 $var wire 8 K io_din_bits $end
 $var wire 1 S io_dout_ready $end
 $var wire 1 V clock $end
 $var wire 8 [ io_dout_bits $end
  $scope module tx $end
   $var wire 9 % hi $end
   $var wire 3 & rateCounter $end
   $var wire 1 ' clock $end
   $var wire 1 ( io_tx $end
   $var wire 1 5 bits_6 $end
   $var wire 1 6 bits_5 $end
   $var wire 1 7 bits_4 $end
   $var wire 1 8 bits_3 $end
   $var wire 1 9 bits_2 $end
   $var wire 1 : bits_1 $end
   $var wire 1 ; bits_0 $end
   $var wire 1 < bits_9 $end
   $var wire 1 = bits_8 $end
   $var wire 1 > bits_7 $end
   $var wire 1 B io_din_valid $end
   $var wire 1 E ready $end
   $var wire 1 G io_din_ready $end
   $var wire 1 T reset $end
   $var wire 4 U bitCounter $end
   $var wire 8 \ io_din_bits $end
  $upscope $end
  $scope module rx $end
   $var wire 2 ! outBits_lo_hi $end
   $var wire 2 " outBits_hi_hi $end
   $var wire 4 # outBits_lo $end
   $var wire 1 $ clock $end
   $var wire 1 + reset $end
   $var wire 1 - outReady $end
   $var wire 2 . outBits_lo_lo $end
   $var wire 1 / rxRegs_2 $end
   $var wire 4 1 outBits_hi $end
   $var wire 1 2 rxRegs_1 $end
   $var wire 1 3 rxRegs_0 $end
   $var wire 1 4 outValid $end
   $var wire 8 ? outBits $end
   $var wire 1 A io_rx $end
   $var wire 1 F io_dout_valid $end
   $var wire 1 H bits_9 $end
   $var wire 1 I bits_7 $end
   $var wire 1 J bits_8 $end
   $var wire 1 L bits_5 $end
   $var wire 1 M bits_6 $end
   $var wire 1 N bits_3 $end
   $var wire 1 O bits_4 $end
   $var wire 1 P bits_1 $end
   $var wire 1 Q bits_2 $end
   $var wire 2 R outBits_hi_lo $end
   $var wire 1 W running $end
   $var wire 4 X rateCounter $end
   $var wire 1 Y overrun $end
   $var wire 1 Z io_overrun $end
   $var wire 1 ] io_dout_ready $end
   $var wire 4 ^ bitCounter $end
   $var wire 8 _ io_dout_bits $end
  $upscope $end
$upscope $end
$enddefinitions $end
$dumpvars
00
02
03
04
05
06
07
08
09
0:
0;
b00 .
0<
b00000000 _
0=
0>
0@
b000000000 %
0A
0B
0C
0D
0E
0F
0G
0H
b00 !
0I
0J
0L
0M
0N
0O
b00 "
0P
b00000000 K
0Q
b0000 #
0S
0T
0V
0W
0Y
0Z
b00000000 ?
0]
b00000000 [
b00000000 \
b0000 1
b0000 U
b0000 X
b000 &
b0000 ^
b00 R
0$
0'
0(
0)
0*
0+
0,
0-
0/
$end
#0
1A
1C
1D
1T
b100000000 %
1E
1G
1(
1+
#1
1$
1V
1'
#6
1C
0$
1T
0V
0'
1+
#11
1$
1V
1'
#16
0$
0V
0'
#21
1$
1V
1'
#26
0$
0V
0'
#31
1$
1V
1'
#36
0$
0V
0'
#41
1$
1V
1'
#46
1@
1B
0C
0$
0T
b101000001 %
0V
0'
0+
b01000001 K
b01000001 \
#51
0A
1$
0D
0E
b111 &
1'
0G
0(
1/
b1010 U
1V
1:
1<
1>
#56
0$
0V
0'
#61
12
1$
b110 &
1V
1'
0/
#66
0$
0V
0'
#71
02
13
1$
b101 &
1V
1'
#76
0$
0V
0'
#81
03
1$
b100 &
1V
1'
1W
b1011 X
b1001 ^
#86
0$
0V
0'
#91
1$
b011 &
1V
1'
b1010 X
#96
0$
0V
0'
#101
1$
b010 &
1V
1'
b1001 X
#106
0$
0V
0'
#111
1$
b001 &
1V
1'
b1000 X
#116
0$
0V
0'
#121
1$
b000 &
1V
1'
b0111 X
#126
0$
0V
0'
#131
1A
1$
b111 &
1'
1(
15
b1001 U
1V
b0110 X
0:
1;
1=
0>
#136
0$
0V
0'
#141
1$
b110 &
1V
1'
b0101 X
1/
#146
0$
0V
0'
#151
12
1$
b101 &
1V
1'
b0100 X
#156
0$
0V
0'
#161
13
1$
b100 &
1V
1'
b0011 X
#166
0$
0V
0'
#171
1$
b011 &
1V
1'
b0010 X
#176
0$
0V
0'
#181
1$
b010 &
1V
1'
b0001 X
#186
0$
0V
0'
#191
1$
b001 &
1V
1'
b0000 X
#196
0$
0V
0'
#201
1$
b000 &
1V
1'
1H
b0111 X
b1000 ^
#206
0$
0V
0'
#211
0A
1$
b111 &
1'
0(
05
b1000 U
16
1V
b0110 X
0;
1>
#216
0$
0V
0'
#221
1$
b110 &
1V
1'
b0101 X
0/
#226
0$
0V
0'
#231
02
1$
b101 &
1V
1'
b0100 X
#236
0$
0V
0'
#241
03
1$
b100 &
1V
1'
b0011 X
#246
0$
0V
0'
#251
1$
b011 &
1V
1'
b0010 X
#256
0$
0V
0'
#261
1$
b010 &
1V
1'
b0001 X
#266
0$
0V
0'
#271
1$
b001 &
1V
1'
b0000 X
#276
0$
0V
0'
#281
b1000 1
b10 "
1$
b000 &
1V
1'
0H
b0111 X
1J
b0111 ^
#286
0$
0V
0'
#291
1$
15
b0111 U
b111 &
06
1V
1'
17
b0110 X
#296
0$
0V
0'
#301
1$
b110 &
1V
1'
b0101 X
#306
0$
0V
0'
#311
1$
b101 &
1V
1'
b0100 X
#316
0$
0V
0'
#321
1$
b100 &
1V
1'
b0011 X
#326
0$
0V
0'
#331
1$
b011 &
1V
1'
b0010 X
#336
0$
0V
0'
#341
1$
b010 &
1V
1'
b0001 X
#346
0$
0V
0'
#351
1$
b001 &
1V
1'
b0000 X
#356
0$
0V
0'
#361
b0100 1
b01 "
1$
b000 &
1V
1'
b0111 X
1I
0J
b0110 ^
#366
0$
0V
0'
#371
1$
b0110 U
b111 &
16
1V
1'
07
18
b0110 X
#376
0$
0V
0'
#381
1$
b110 &
1V
1'
b0101 X
#386
0$
0V
0'
#391
1$
b101 &
1V
1'
b0100 X
#396
0$
0V
0'
#401
1$
b100 &
1V
1'
b0011 X
#406
0$
0V
0'
#411
1$
b011 &
1V
1'
b0010 X
#416
0$
0V
0'
#421
1$
b010 &
1V
1'
b0001 X
#426
0$
0V
0'
#431
1$
b001 &
1V
1'
b0000 X
#436
0$
0V
0'
#441
b0010 1
b00 "
b10 R
1$
b000 &
1V
1'
b0111 X
0I
1M
b0101 ^
#446
0$
0V
0'
#451
1$
b0101 U
b111 &
1V
1'
17
08
b0110 X
19
#456
0$
0V
0'
#461
1$
b110 &
1V
1'
b0101 X
#466
0$
0V
0'
#471
1$
b101 &
1V
1'
b0100 X
#476
0$
0V
0'
#481
1$
b100 &
1V
1'
b0011 X
#486
0$
0V
0'
#491
1$
b011 &
1V
1'
b0010 X
#496
0$
0V
0'
#501
1$
b010 &
1V
1'
b0001 X
#506
0$
0V
0'
#511
1$
b001 &
1V
1'
b0000 X
#516
0$
0V
0'
#521
b0001 1
b01 R
1$
b000 &
1V
1'
b0111 X
1L
0M
b0100 ^
#526
0$
0V
0'
#531
1$
b0100 U
b111 &
1V
1'
18
b0110 X
09
1:
#536
0$
0V
0'
#541
1$
b110 &
1V
1'
b0101 X
#546
0$
0V
0'
#551
1$
b101 &
1V
1'
b0100 X
#556
0$
0V
0'
#561
1$
b100 &
1V
1'
b0011 X
#566
0$
0V
0'
#571
1$
b011 &
1V
1'
b0010 X
#576
0$
0V
0'
#581
1$
b010 &
1V
1'
b0001 X
#586
0$
0V
0'
#591
1$
b001 &
1V
1'
b0000 X
#596
0$
0V
0'
#601
b10 !
b1000 #
1$
b000 &
1'
0L
1O
b0000 1
b00 R
1V
b0111 X
b0011 ^
#606
0$
0V
0'
#611
1A
1$
b0011 U
b111 &
1V
1'
1(
b0110 X
19
0:
1;
#616
0$
0V
0'
#621
1$
b110 &
1V
1'
b0101 X
1/
#626
0$
0V
0'
#631
12
1$
b101 &
1V
1'
b0100 X
#636
0$
0V
0'
#641
13
1$
b100 &
1V
1'
b0011 X
#646
0$
0V
0'
#651
1$
b011 &
1V
1'
b0010 X
#656
0$
0V
0'
#661
1$
b010 &
1V
1'
b0001 X
#666
0$
0V
0'
#671
1$
b001 &
1V
1'
b0000 X
#676
0$
0V
0'
#681
b01 !
b0100 #
1$
b000 &
1V
1'
1H
b0111 X
1N
b0010 ^
0O
#686
0$
0V
0'
#691
0A
1$
b0010 U
b111 &
1V
1'
0(
b0110 X
1:
0;
#696
0$
0V
0'
#701
1$
b110 &
1V
1'
b0101 X
0/
#706
0$
0V
0'
#711
02
1$
b101 &
1V
1'
b0100 X
#716
0$
0V
0'
#721
03
1$
b100 &
1V
1'
b0011 X
#726
0$
0V
0'
#731
1$
b011 &
1V
1'
b0010 X
#736
0$
0V
0'
#741
1$
b010 &
1V
1'
b0001 X
#746
0$
0V
0'
#751
1$
b001 &
1V
1'
b0000 X
#756
0$
0V
0'
#761
b00 !
b10 "
b0010 #
1$
b000 &
1'
0H
1J
b10 .
0N
b1000 1
1Q
1V
b0111 X
b0001 ^
#766
0$
0V
0'
#771
1A
1$
b0001 U
b111 &
1V
1'
1(
b0110 X
1;
#776
0$
0V
0'
#781
1$
b110 &
1V
1'
b0101 X
1/
#786
0$
0V
0'
#791
12
1$
b101 &
1V
1'
b0100 X
#796
0$
0V
0'
#801
13
1$
b100 &
1V
1'
b0011 X
#806
0$
0V
0'
#811
1$
b011 &
1V
1'
b0010 X
#816
0$
0V
0'
#821
1$
b010 &
1V
1'
b0001 X
#826
0$
0V
0'
#831
1$
b001 &
1V
1'
b0000 X
#836
0$
0V
0'
#841
b01 "
b0001 #
1$
b000 &
1'
1H
1I
0J
b01 .
1P
b0100 1
0Q
1V
b0111 X
b0000 ^
#846
0$
0V
0'
#851
1$
1D
1E
b0000 U
b111 &
1V
1'
1G
b0110 X
#856
0@
0B
0$
0V
0'
#861
1$
1V
1'
b0101 X
#866
0$
0V
0'
#871
1$
1V
1'
b0100 X
#876
0$
0V
0'
#881
1$
1V
1'
b0011 X
#886
0$
0V
0'
#891
1$
1V
1'
b0010 X
#896
0$
0V
0'
#901
1$
1V
1'
b0001 X
#906
0$
0V
0'
#911
1$
1V
1'
b0000 X
#916
0$
0V
0'
#921
b10 "
b0000 #
1$
1F
1'
0I
1J
1M
b00 .
10
0P
b1010 1
b10 R
14
1V
0W
b01000001 [
b01000001 ?
b01000001 _
#926
1S
0$
0V
0'
1-
1]
#931
00
1$
04
0F
1V
1'
#936
1@
1B
0S
0$
b101000010 %
0V
0'
b01000010 K
b01000010 \
0-
0]
#941
0A
1$
0D
0E
1'
0G
0(
05
b1010 U
06
1V
07
08
0:
0;
0=
#946
0$
0V
0'
#951
1$
b110 &
1V
1'
0/
#956
0$
0V
0'
#961
02
1$
b101 &
1V
1'
#966
0$
0V
0'
#971
03
1$
b100 &
1V
1'
1W
b1011 X
b1001 ^
#976
0$
0V
0'
#981
1$
b011 &
1V
1'
b1010 X
#986
0$
0V
0'
#991
1$
b010 &
1V
1'
b1001 X
#996
0$
0V
0'
#1001
1$
b001 &
1V
1'
b1000 X
#1006
0$
0V
0'
#1011
1$
b000 &
1V
1'
b0111 X
#1016
0$
0V
0'
#1021
1$
15
b1001 U
b111 &
1V
1'
b0110 X
09
1:
1=
0>
#1026
0$
0V
0'
#1031
1$
b110 &
1V
1'
b0101 X
#1036
0$
0V
0'
#1041
1$
b101 &
1V
1'
b0100 X
#1046
0$
0V
0'
#1051
1$
b100 &
1V
1'
b0011 X
#1056
0$
0V
0'
#1061
1$
b011 &
1V
1'
b0010 X
#1066
0$
0V
0'
#1071
1$
b010 &
1V
1'
b0001 X
#1076
0$
0V
0'
#1081
1$
b001 &
1V
1'
b0000 X
#1086
0$
0V
0'
#1091
b11 "
1$
b000 &
1'
0H
1I
1L
0M
b1101 1
b01 R
1V
b0111 X
b1000 ^
#1096
0$
0V
0'
#1101
1A
1$
b111 &
1'
1(
05
b1000 U
16
1V
b0110 X
0:
1;
1>
#1106
0$
0V
0'
#1111
1$
b110 &
1V
1'
b0101 X
1/
#1116
0$
0V
0'
#1121
12
1$
b101 &
1V
1'
b0100 X
#1126
0$
0V
0'
#1131
13
1$
b100 &
1V
1'
b0011 X
#1136
0$
0V
0'
#1141
1$
b011 &
1V
1'
b0010 X
#1146
0$
0V
0'
#1151
1$
b010 &
1V
1'
b0001 X
#1156
0$
0V
0'
#1161
1$
b001 &
1V
1'
b0000 X
#1166
0$
0V
0'
#1171
b10 !
b01 "
b1000 #
1$
b000 &
1'
1H
0J
0L
1M
1O
b0110 1
b10 R
1V
b0111 X
b0111 ^
#1176
0$
0V
0'
#1181
0A
1$
b111 &
1'
0(
15
b0111 U
06
1V
17
b0110 X
0;
#1186
0$
0V
0'
#1191
1$
b110 &
1V
1'
b0101 X
0/
#1196
0$
0V
0'
#1201
02
1$
b101 &
1V
1'
b0100 X
#1206
0$
0V
0'
#1211
03
1$
b100 &
1V
1'
b0011 X
#1216
0$
0V
0'
#1221
1$
b011 &
1V
1'
b0010 X
#1226
0$
0V
0'
#1231
1$
b010 &
1V
1'
b0001 X
#1236
0$
0V
0'
#1241
1$
b001 &
1V
1'
b0000 X
#1246
0$
0V
0'
#1251
b01 !
b10 "
b0100 #
1$
b000 &
1'
0H
0I
1J
1L
1N
0O
b1011 1
b11 R
1V
b0111 X
b0110 ^
#1256
0$
0V
0'
#1261
1$
b0110 U
b111 &
16
1V
1'
07
18
b0110 X
#1266
0$
0V
0'
#1271
1$
b110 &
1V
1'
b0101 X
#1276
0$
0V
0'
#1281
1$
b101 &
1V
1'
b0100 X
#1286
0$
0V
0'
#1291
1$
b100 &
1V
1'
b0011 X
#1296
0$
0V
0'
#1301
1$
b011 &
1V
1'
b0010 X
#1306
0$
0V
0'
#1311
1$
b010 &
1V
1'
b0001 X
#1316
0$
0V
0'
#1321
1$
b001 &
1V
1'
b0000 X
#1326
0$
0V
0'
#1331
b10 !
b01 "
b1010 #
1$
b000 &
1'
1I
0J
0M
b10 .
0N
1O
b0101 1
1Q
b01 R
1V
b0111 X
b0101 ^
#1336
0$
0V
0'
#1341
1$
b0101 U
b111 &
1V
1'
17
08
b0110 X
19
#1346
0$
0V
0'
#1351
1$
b110 &
1V
1'
b0101 X
#1356
0$
0V
0'
#1361
1$
b101 &
1V
1'
b0100 X
#1366
0$
0V
0'
#1371
1$
b100 &
1V
1'
b0011 X
#1376
0$
0V
0'
#1381
1$
b011 &
1V
1'
b0010 X
#1386
0$
0V
0'
#1391
1$
b010 &
1V
1'
b0001 X
#1396
0$
0V
0'
#1401
1$
b001 &
1V
1'
b0000 X
#1406
0$
0V
0'
#1411
b11 !
b00 "
b1101 #
1$
b000 &
1'
0I
0L
1M
b01 .
1N
1P
b0010 1
0Q
b10 R
1V
b0111 X
b0100 ^
#1416
0$
0V
0'
#1421
1$
b0100 U
b111 &
1V
1'
18
b0110 X
09
1:
#1426
0$
0V
0'
#1431
1$
b110 &
1V
1'
b0101 X
#1436
0$
0V
0'
#1441
1$
b101 &
1V
1'
b0100 X
#1446
0$
0V
0'
#1451
1$
b100 &
1V
1'
b0011 X
#1456
0$
0V
0'
#1461
1$
b011 &
1V
1'
b0010 X
#1466
0$
0V
0'
#1471
1$
b010 &
1V
1'
b0001 X
#1476
0$
0V
0'
#1481
1$
b001 &
1V
1'
b0000 X
#1486
0$
0V
0'
#1491
b01 !
b0110 #
1$
b000 &
1'
1L
0M
b10 .
0O
0P
b0001 1
1Q
b01 R
1V
b0111 X
b0011 ^
#1496
0$
0V
0'
#1501
1A
1$
b0011 U
b111 &
1V
1'
1(
b0110 X
19
0:
1;
#1506
0$
0V
0'
#1511
1$
b110 &
1V
1'
b0101 X
1/
#1516
0$
0V
0'
#1521
12
1$
b101 &
1V
1'
b0100 X
#1526
0$
0V
0'
#1531
13
1$
b100 &
1V
1'
b0011 X
#1536
0$
0V
0'
#1541
1$
b011 &
1V
1'
b0010 X
#1546
0$
0V
0'
#1551
1$
b010 &
1V
1'
b0001 X
#1556
0$
0V
0'
#1561
1$
b001 &
1V
1'
b0000 X
#1566
0$
0V
0'
#1571
b10 !
b1011 #
1$
b000 &
1'
1H
0L
b11 .
0N
1O
1P
b0000 1
b00 R
1V
b0111 X
b0010 ^
#1576
0$
0V
0'
#1581
0A
1$
b0010 U
b111 &
1V
1'
0(
b0110 X
1:
0;
#1586
0$
0V
0'
#1591
1$
b110 &
1V
1'
b0101 X
0/
#1596
0$
0V
0'
#1601
02
1$
b101 &
1V
1'
b0100 X
#1606
0$
0V
0'
#1611
03
1$
b100 &
1V
1'
b0011 X
#1616
0$
0V
0'
#1621
1$
b011 &
1V
1'
b0010 X
#1626
0$
0V
0'
#1631
1$
b010 &
1V
1'
b0001 X
#1636
0$
0V
0'
#1641
1$
b001 &
1V
1'
b0000 X
#1646
0$
0V
0'
#1651
b01 !
b10 "
b0101 #
1$
b000 &
1'
0H
1J
b01 .
1N
0O
b1000 1
0Q
1V
b0111 X
b0001 ^
#1656
0$
0V
0'
#1661
1A
1$
b0001 U
b111 &
1V
1'
1(
b0110 X
1;
#1666
0$
0V
0'
#1671
1$
b110 &
1V
1'
b0101 X
1/
#1676
0$
0V
0'
#1681
12
1$
b101 &
1V
1'
b0100 X
#1686
0$
0V
0'
#1691
13
1$
b100 &
1V
1'
b0011 X
#1696
0$
0V
0'
#1701
1$
b011 &
1V
1'
b0010 X
#1706
0$
0V
0'
#1711
1$
b010 &
1V
1'
b0001 X
#1716
0$
0V
0'
#1721
1$
b001 &
1V
1'
b0000 X
#1726
0$
0V
0'
#1731
b00 !
b01 "
b0010 #
1$
b000 &
1'
1H
1I
0J
b10 .
0N
0P
b0100 1
1Q
1V
b0111 X
b0000 ^
#1736
0$
0V
0'
#1741
1$
1D
1E
b0000 U
b111 &
1V
1'
1G
b0110 X
#1746
0@
0B
0$
0V
0'
#1751
1$
1V
1'
b0101 X
#1756
0$
0V
0'
#1761
1$
1V
1'
b0100 X
#1766
0$
0V
0'
#1771
1$
1V
1'
b0011 X
#1776
0$
0V
0'
#1781
1$
1V
1'
b0010 X
#1786
0$
0V
0'
#1791
1$
1V
1'
b0001 X
#1796
0$
0V
0'
#1801
1$
1V
1'
b0000 X
#1806
0$
0V
0'
#1811
b10 "
b0001 #
1$
1F
1'
0I
1J
1M
b01 .
10
1P
b1010 1
0Q
b10 R
14
1V
0W
b01000010 [
b01000010 ?
b01000010 _
#1816
1S
0$
0V
0'
1-
1]
#1821
00
1$
04
0F
1V
1'
#1826
1@
1B
0S
0$
b101000011 %
0V
0'
b01000011 K
b01000011 \
0-
0]
#1831
0A
1$
0D
0E
1'
0G
0(
05
b1010 U
06
1V
07
08
0;
0=
#1836
0$
0V
0'
#1841
1$
b110 &
1V
1'
0/
#1846
0$
0V
0'
#1851
02
1$
b101 &
1V
1'
#1856
0$
0V
0'
#1861
03
1$
b100 &
1V
1'
1W
b1011 X
b1001 ^
#1866
0$
0V
0'
#1871
1$
b011 &
1V
1'
b1010 X
#1876
0$
0V
0'
#1881
1$
b010 &
1V
1'
b1001 X
#1886
0$
0V
0'
#1891
1$
b001 &
1V
1'
b1000 X
#1896
0$
0V
0'
#1901
1$
b000 &
1V
1'
b0111 X
#1906
0$
0V
0'
#1911
1A
1$
b111 &
1'
1(
15
b1001 U
1V
b0110 X
09
1;
1=
0>
#1916
0$
0V
0'
#1921
1$
b110 &
1V
1'
b0101 X
1/
#1926
0$
0V
0'
#1931
12
1$
b101 &
1V
1'
b0100 X
#1936
0$
0V
0'
#1941
13
1$
b100 &
1V
1'
b0011 X
#1946
0$
0V
0'
#1951
1$
b011 &
1V
1'
b0010 X
#1956
0$
0V
0'
#1961
1$
b010 &
1V
1'
b0001 X
#1966
0$
0V
0'
#1971
1$
b001 &
1V
1'
b0000 X
#1976
0$
0V
0'
#1981
b11 "
b0000 #
1$
b000 &
1'
1I
1L
0M
b00 .
0P
b1101 1
b01 R
1V
b0111 X
b1000 ^
#1986
0$
0V
0'
#1991
1$
05
b1000 U
b111 &
16
1V
1'
b0110 X
0:
1>
#1996
0$
0V
0'
#2001
1$
b110 &
1V
1'
b0101 X
#2006
0$
0V
0'
#2011
1$
b101 &
1V
1'
b0100 X
#2016
0$
0V
0'
#2021
1$
b100 &
1V
1'
b0011 X
#2026
0$
0V
0'
#2031
1$
b011 &
1V
1'
b0010 X
#2036
0$
0V
0'
#2041
1$
b010 &
1V
1'
b0001 X
#2046
0$
0V
0'
#2051
1$
b001 &
1V
1'
b0000 X
#2056
0$
0V
0'
#2061
b10 !
b1000 #
1$
b000 &
1'
0L
1M
1O
b1110 1
b10 R
1V
b0111 X
b0111 ^
#2066
0$
0V
0'
#2071
0A
1$
b111 &
1'
0(
15
b0111 U
06
1V
17
b0110 X
0;
#2076
0$
0V
0'
#2081
1$
b110 &
1V
1'
b0101 X
0/
#2086
0$
0V
0'
#2091
02
1$
b101 &
1V
1'
b0100 X
#2096
0$
0V
0'
#2101
03
1$
b100 &
1V
1'
b0011 X
#2106
0$
0V
0'
#2111
1$
b011 &
1V
1'
b0010 X
#2116
0$
0V
0'
#2121
1$
b010 &
1V
1'
b0001 X
#2126
0$
0V
0'
#2131
1$
b001 &
1V
1'
b0000 X
#2136
0$
0V
0'
#2141
b01 !
b0100 #
1$
b000 &
1'
0H
1L
1N
0O
b1111 1
b11 R
1V
b0111 X
b0110 ^
#2146
0$
0V
0'
#2151
1$
b0110 U
b111 &
16
1V
1'
07
18
b0110 X
#2156
0$
0V
0'
#2161
1$
b110 &
1V
1'
b0101 X
#2166
0$
0V
0'
#2171
1$
b101 &
1V
1'
b0100 X
#2176
0$
0V
0'
#2181
1$
b100 &
1V
1'
b0011 X
#2186
0$
0V
0'
#2191
1$
b011 &
1V
1'
b0010 X
#2196
0$
0V
0'
#2201
1$
b010 &
1V
1'
b0001 X
#2206
0$
0V
0'
#2211
1$
b001 &
1V
1'
b0000 X
#2216
0$
0V
0'
#2221
b10 !
b01 "
b1010 #
1$
b000 &
1'
0J
b10 .
0N
1O
b0111 1
1Q
1V
b0111 X
b0101 ^
#2226
0$
0V
0'
#2231
1$
b0101 U
b111 &
1V
1'
17
08
b0110 X
19
#2236
0$
0V
0'
#2241
1$
b110 &
1V
1'
b0101 X
#2246
0$
0V
0'
#2251
1$
b101 &
1V
1'
b0100 X
#2256
0$
0V
0'
#2261
1$
b100 &
1V
1'
b0011 X
#2266
0$
0V
0'
#2271
1$
b011 &
1V
1'
b0010 X
#2276
0$
0V
0'
#2281
1$
b010 &
1V
1'
b0001 X
#2286
0$
0V
0'
#2291
1$
b001 &
1V
1'
b0000 X
#2296
0$
0V
0'
#2301
b11 !
b00 "
b1101 #
1$
b000 &
1'
0I
b01 .
1N
1P
b0011 1
0Q
1V
b0111 X
b0100 ^
#2306
0$
0V
0'
#2311
1$
b0100 U
b111 &
1V
1'
18
b0110 X
09
1:
#2316
0$
0V
0'
#2321
1$
b110 &
1V
1'
b0101 X
#2326
0$
0V
0'
#2331
1$
b101 &
1V
1'
b0100 X
#2336
0$
0V
0'
#2341
1$
b100 &
1V
1'
b0011 X
#2346
0$
0V
0'
#2351
1$
b011 &
1V
1'
b0010 X
#2356
0$
0V
0'
#2361
1$
b010 &
1V
1'
b0001 X
#2366
0$
0V
0'
#2371
1$
b001 &
1V
1'
b0000 X
#2376
0$
0V
0'
#2381
b1110 #
1$
b000 &
1'
0M
b10 .
0P
b0001 1
1Q
b01 R
1V
b0111 X
b0011 ^
#2386
0$
0V
0'
#2391
1A
1$
b0011 U
b111 &
1V
1'
1(
b0110 X
19
0:
1;
#2396
0$
0V
0'
#2401
1$
b110 &
1V
1'
b0101 X
1/
#2406
0$
0V
0'
#2411
12
1$
b101 &
1V
1'
b0100 X
#2416
0$
0V
0'
#2421
13
1$
b100 &
1V
1'
b0011 X
#2426
0$
0V
0'
#2431
1$
b011 &
1V
1'
b0010 X
#2436
0$
0V
0'
#2441
1$
b010 &
1V
1'
b0001 X
#2446
0$
0V
0'
#2451
1$
b001 &
1V
1'
b0000 X
#2456
0$
0V
0'
#2461
b1111 #
1$
b000 &
1'
1H
0L
b11 .
1P
b0000 1
b00 R
1V
b0111 X
b0010 ^
#2466
0$
0V
0'
#2471
0A
1$
b0010 U
b111 &
1V
1'
0(
b0110 X
1:
0;
#2476
0$
0V
0'
#2481
1$
b110 &
1V
1'
b0101 X
0/
#2486
0$
0V
0'
#2491
02
1$
b101 &
1V
1'
b0100 X
#2496
0$
0V
0'
#2501
03
1$
b100 &
1V
1'
b0011 X
#2506
0$
0V
0'
#2511
1$
b011 &
1V
1'
b0010 X
#2516
0$
0V
0'
#2521
1$
b010 &
1V
1'
b0001 X
#2526
0$
0V
0'
#2531
1$
b001 &
1V
1'
b0000 X
#2536
0$
0V
0'
#2541
b01 !
b10 "
b0111 #
1$
b000 &
1'
0H
1J
0O
b1000 1
1V
b0111 X
b0001 ^
#2546
0$
0V
0'
#2551
1A
1$
b0001 U
b111 &
1V
1'
1(
b0110 X
1;
#2556
0$
0V
0'
#2561
1$
b110 &
1V
1'
b0101 X
1/
#2566
0$
0V
0'
#2571
12
1$
b101 &
1V
1'
b0100 X
#2576
0$
0V
0'
#2581
13
1$
b100 &
1V
1'
b0011 X
#2586
0$
0V
0'
#2591
1$
b011 &
1V
1'
b0010 X
#2596
0$
0V
0'
#2601
1$
b010 &
1V
1'
b0001 X
#2606
0$
0V
0'
#2611
1$
b001 &
1V
1'
b0000 X
#2616
0$
0V
0'
#2621
b00 !
b01 "
b0011 #
1$
b000 &
1'
1H
1I
0J
0N
b0100 1
1V
b0111 X
b0000 ^
#2626
0$
0V
0'
#2631
1$
1D
1E
b0000 U
b111 &
1V
1'
1G
b0110 X
#2636
0@
0B
0$
0V
0'
#2641
1$
1V
1'
b0101 X
#2646
0$
0V
0'
#2651
1$
1V
1'
b0100 X
#2656
0$
0V
0'
#2661
1$
1V
1'
b0011 X
#2666
0$
0V
0'
#2671
1$
1V
1'
b0010 X
#2676
0$
0V
0'
#2681
1$
1V
1'
b0001 X
#2686
0$
0V
0'
#2691
1$
1V
1'
b0000 X
#2696
0$
0V
0'
#2701
b10 "
b0001 #
1$
1F
1'
0I
1J
1M
b01 .
10
b1010 1
0Q
b10 R
14
1V
0W
b01000011 [
b01000011 ?
b01000011 _
#2706
1S
0$
0V
0'
1-
1]
#2711
00
1$
04
0F
1V
1'
#2716
1@
1B
0S
0$
b101000100 %
0V
0'
b01000100 K
b01000100 \
0-
0]
#2721
0A
1$
0D
0E
1'
0G
0(
05
b1010 U
06
1V
07
09
0:
0;
0=
#2726
0$
0V
0'
#2731
1$
b110 &
1V
1'
0/
#2736
0$
0V
0'
#2741
02
1$
b101 &
1V
1'
#2746
0$
0V
0'
#2751
03
1$
b100 &
1V
1'
1W
b1011 X
b1001 ^
#2756
0$
0V
0'
#2761
1$
b011 &
1V
1'
b1010 X
#2766
0$
0V
0'
#2771
1$
b010 &
1V
1'
b1001 X
#2776
0$
0V
0'
#2781
1$
b001 &
1V
1'
b1000 X
#2786
0$
0V
0'
#2791
1$
b000 &
1V
1'
b0111 X
#2796
0$
0V
0'
#2801
1$
15
b1001 U
b111 &
1V
1'
08
b0110 X
19
1=
0>
#2806
0$
0V
0'
#2811
1$
b110 &
1V
1'
b0101 X
#2816
0$
0V
0'
#2821
1$
b101 &
1V
1'
b0100 X
#2826
0$
0V
0'
#2831
1$
b100 &
1V
1'
b0011 X
#2836
0$
0V
0'
#2841
1$
b011 &
1V
1'
b0010 X
#2846
0$
0V
0'
#2851
1$
b010 &
1V
1'
b0001 X
#2856
0$
0V
0'
#2861
1$
b001 &
1V
1'
b0000 X
#2866
0$
0V
0'
#2871
b11 "
b0000 #
1$
b000 &
1'
0H
1I
1L
0M
b00 .
0P
b1101 1
b01 R
1V
b0111 X
b1000 ^
#2876
0$
0V
0'
#2881
1$
05
b1000 U
b111 &
16
1V
1'
b0110 X
09
1:
1>
#2886
0$
0V
0'
#2891
1$
b110 &
1V
1'
b0101 X
#2896
0$
0V
0'
#2901
1$
b101 &
1V
1'
b0100 X
#2906
0$
0V
0'
#2911
1$
b100 &
1V
1'
b0011 X
#2916
0$
0V
0'
#2921
1$
b011 &
1V
1'
b0010 X
#2926
0$
0V
0'
#2931
1$
b010 &
1V
1'
b0001 X
#2936
0$
0V
0'
#2941
1$
b001 &
1V
1'
b0000 X
#2946
0$
0V
0'
#2951
b10 !
b01 "
b1000 #
1$
b000 &
1'
0J
0L
1M
1O
b0110 1
b10 R
1V
b0111 X
b0111 ^
#2956
0$
0V
0'
#2961
1A
1$
b111 &
1'
1(
15
b0111 U
06
1V
17
b0110 X
0:
1;
#2966
0$
0V
0'
#2971
1$
b110 &
1V
1'
b0101 X
1/
#2976
0$
0V
0'
#2981
12
1$
b101 &
1V
1'
b0100 X
#2986
0$
0V
0'
#2991
13
1$
b100 &
1V
1'
b0011 X
#2996
0$
0V
0'
#3001
1$
b011 &
1V
1'
b0010 X
#3006
0$
0V
0'
#3011
1$
b010 &
1V
1'
b0001 X
#3016
0$
0V
0'
#3021
1$
b001 &
1V
1'
b0000 X
#3026
0$
0V
0'
#3031
b01 !
b00 "
b0100 #
1$
b000 &
1'
1H
0I
1L
1N
0O
b0011 1
b11 R
1V
b0111 X
b0110 ^
#3036
0$
0V
0'
#3041
0A
1$
b111 &
1'
0(
b0110 U
16
1V
07
18
b0110 X
0;
#3046
0$
0V
0'
#3051
1$
b110 &
1V
1'
b0101 X
0/
#3056
0$
0V
0'
#3061
02
1$
b101 &
1V
1'
b0100 X
#3066
0$
0V
0'
