chisel/test_run_dir/must_runs_UartTx/UartTx.vcd
$date
2024-12-07T14:26+0000
$end
$version
0.2
$end
$comment

$end
$timescale 1ns  $end
$scope module UartTx $end
 $var wire 1 ! bits_2 $end
 $var wire 1 " bits_1 $end
 $var wire 9 # hi $end
 $var wire 1 $ bits_4 $end
 $var wire 1 % bits_3 $end
 $var wire 1 & bits_6 $end
 $var wire 1 ' bits_5 $end
 $var wire 1 ( bits_8 $end
 $var wire 1 ) bits_7 $end
 $var wire 1 * bits_0 $end
 $var wire 3 + rateCounter $end
 $var wire 4 , bitCounter $end
 $var wire 1 - clock $end
 $var wire 1 . reset $end
 $var wire 1 / io_tx $end
 $var wire 1 0 io_din_ready $end
 $var wire 1 1 ready $end
 $var wire 1 2 bits_9 $end
 $var wire 8 3 io_din_bits $end
 $var wire 1 4 io_din_valid $end
$upscope $end
$enddefinitions $end
$dumpvars
00
01
02
04
b0000 ,
b000 +
0!
0"
b000000000 #
0$
0%
0&
0'
0(
b00000000 3
0)
0*
0-
0.
0/
$end
#0
10
11
b100000000 #
1.
1/
#1
1-
#6
0-
1.
#11
1-
#16
0-
#21
1-
#26
0-
#31
1-
#36
0-
#41
1-
#46
b101000001 #
b01000001 3
14
0-
0.
#51
00
01
1"
12
1)
b111 +
b1010 ,
1-
0/
#56
04
0-
#61
b110 +
1-
#66
0-
#71
b101 +
1-
#76
0-
#81
b100 +
1-
#86
0-
#91
b011 +
1-
#96
0-
#101
b010 +
1-
#106
0-
#111
b001 +
1-
#116
0-
#121
b000 +
1-
#126
0-
#131
0"
1&
1(
0)
1*
b111 +
b1001 ,
1-
1/
#136
0-
#141
b110 +
1-
#146
0-
#151
b101 +
1-
#156
0-
#161
b100 +
1-
#166
0-
#171
b011 +
1-
#176
0-
#181
b010 +
1-
#186
0-
#191
b001 +
1-
#196
0-
#201
b000 +
1-
#206
0-
#211
0&
1'
1)
0*
b111 +
b1000 ,
1-
0/
#216
0-
#221
b110 +
1-
#226
0-
#231
b101 +
1-
#236
0-
#241
b100 +
1-
#246
0-
#251
b011 +
1-
#256
0-
#261
b010 +
1-
#266
0-
#271
b001 +
1-
#276
0-
#281
b000 +
1-
#286
0-
#291
1$
1&
0'
b111 +
b0111 ,
1-
#296
0-
#301
b110 +
1-
#306
0-
#311
b101 +
1-
#316
0-
#321
b100 +
1-
#326
0-
#331
b011 +
1-
#336
0-
#341
b010 +
1-
#346
0-
#351
b001 +
1-
#356
0-
#361
b000 +
1-
#366
0-
#371
0$
1%
1'
b111 +
b0110 ,
1-
#376
0-
#381
b110 +
1-
#386
0-
#391
b101 +
1-
#396
0-
#401
b100 +
1-
#406
0-
#411
b011 +
1-
#416
0-
#421
b010 +
1-
#426
0-
#431
b001 +
1-
#436
0-
#441
b000 +
1-
#446
0-
#451
1!
1$
0%
b111 +
b0101 ,
1-
#456
0-
#461
b110 +
1-
#466
0-
#471
b101 +
1-
#476
0-
#481
b100 +
1-
#486
0-
#491
b011 +
1-
#496
0-
#501
b010 +
1-
#506
0-
#511
b001 +
1-
#516
0-
#521
b000 +
1-
#526
0-
#531
0!
1"
1%
b111 +
b0100 ,
1-
#536
0-
#541
b110 +
1-
#546
0-
#551
b101 +
1-
#556
0-
#561
b100 +
1-
#566
0-
#571
b011 +
1-
#576
0-
#581
b010 +
1-
#586
0-
#591
b001 +
1-
#596
0-
#601
b000 +
1-
#606
0-
#611
1!
0"
1*
b111 +
b0011 ,
1-
1/
#616
0-
#621
b110 +
1-
#626
0-
#631
b101 +
1-
#636
0-
#641
b100 +
1-
#646
0-
#651
b011 +
1-
#656
0-
#661
b010 +
1-
#666
0-
#671
b001 +
1-
#676
0-
#681
b000 +
1-
#686
0-
#691
1"
0*
b111 +
b0010 ,
1-
0/
#696
0-
#701
b110 +
1-
#706
0-
#711
b101 +
1-
#716
0-
#721
b100 +
1-
#726
0-
#731
b011 +
1-
#736
0-
#741
b010 +
1-
#746
0-
#751
b001 +
1-
#756
0-
#761
b000 +
1-
#766
0-
#771
1*
b111 +
b0001 ,
1-
1/
#776
0-
#781
b110 +
1-
#786
0-
#791
b101 +
1-
#796
0-
#801
b100 +
1-
#806
0-
#811
b011 +
1-
#816
0-
#821
b010 +
1-
#826
0-
#831
b001 +
1-
#836
0-
#841
b000 +
1-
#846
0-
#851
10
11
b111 +
b0000 ,
1-
