chisel/test_run_dir/must_runs_Spi/SpiEchoback.vcd
$date
2024-12-07T14:22+0000
$end
$version
0.2
$end
$comment

$end
$timescale 1ns  $end
$scope module SpiEchoback $end
 $var wire 1 ! io_sclk $end
 $var wire 1 ) io_spiMode_valid $end
 $var wire 1 * io_miso $end
 $var wire 1 , reset $end
 $var wire 3 3 io_clkshamt_bits $end
 $var wire 1 5 io_din_ready $end
 $var wire 1 8 io_clkshamt_ready $end
 $var wire 8 : io_din_bits $end
 $var wire 1 = io_dout_ready $end
 $var wire 1 A io_dout_valid $end
 $var wire 1 D clock $end
 $var wire 1 E spi $end
 $var wire 1 G io_mosi $end
 $var wire 1 H io_spiMode_ready $end
 $var wire 8 L io_dout_bits $end
 $var wire 2 M io_spiMode_bits $end
 $var wire 1 R io_clkshamt_valid $end
 $var wire 1 S io_din_valid $end
  $scope module spi $end
   $var wire 1 " io_mosi $end
   $var wire 1 # clkshamtReady $end
   $var wire 1 $ sclk $end
   $var wire 1 % io_spiMode_ready $end
   $var wire 1 & io_dout_valid $end
   $var wire 1 ' reset $end
   $var wire 3 ( io_clkshamt_bits $end
   $var wire 1 + misoBuf $end
   $var wire 1 - busy $end
   $var wire 1 . isFirstSclk $end
   $var wire 1 / spiModeReady $end
   $var wire 1 0 io_spiMode_valid $end
   $var wire 8 1 shiftReg $end
   $var wire 1 2 io_dout_ready $end
   $var wire 1 4 io_clkshamt_ready $end
   $var wire 1 6 mode_1_2 $end
   $var wire 9 7 sclkCounter $end
   $var wire 1 9 io_din_ready $end
   $var wire 8 ; io_din_bits $end
   $var wire 1 < io_miso $end
   $var wire 1 > negedge $end
   $var wire 1 ? clock $end
   $var wire 1 @ io_clkshamt_valid $end
   $var wire 8 B io_dout_bits $end
   $var wire 1 C io_sclk $end
   $var wire 1 F outValid $end
   $var wire 4 I bitCounter $end
   $var wire 1 J posedge $end
   $var wire 1 K cpol $end
   $var wire 2 N io_spiMode_bits $end
   $var wire 3 O clkshamt $end
   $var wire 1 P cpha $end
   $var wire 1 Q io_din_valid $end
  $upscope $end
$upscope $end
$enddefinitions $end
$dumpvars
00
02
04
05
06
08
09
0<
0=
0>
0?
0@
0A
0C
0D
0E
0F
0G
0H
0J
0K
0P
0Q
0R
0S
b00000000 L
b000000000 7
b00000000 B
b000 O
b0000 I
b00000000 ;
b00000000 :
b000 3
b00000000 1
b000 (
b00 N
0!
0"
0#
0$
b00 M
0%
0&
0'
0)
0*
0+
0,
0-
0.
0/
$end
#0
1'
1,
#1
1#
14
1D
1%
18
1H
1.
1/
1?
#6
0D
1'
1,
0?
#11
1D
1?
#16
1@
0D
0'
b001 (
1)
0,
b10 M
b10 N
10
1R
b001 3
0?
#21
1!
0#
1C
1$
1D
0%
0H
1K
0/
b001 O
04
16
08
1?
#26
0D
0?
#31
1D
1?
#36
1Q
1S
0D
b11000001 :
b11000001 ;
0?
#41
1"
b11000001 B
1D
1G
b1000 I
1*
b11000001 L
1-
b11000001 1
b000000011 7
1<
1?
#46
00
0@
0Q
0R
0S
0D
0)
0?
#51
1D
b000000010 7
1?
#56
0D
0?
#61
1D
b000000001 7
1?
#66
0D
0?
#71
1D
b000000000 7
1>
1?
#76
0D
0?
#81
0!
0C
0$
1D
b000000001 7
1+
0.
0>
1?
#86
0D
0?
#91
1D
b000000000 7
1J
1?
#96
0D
0?
#101
1!
b10000011 1
b10000011 B
1C
1$
1D
b000000001 7
b0111 I
0J
b10000011 L
1?
#106
0D
0?
#111
1D
b000000000 7
1>
1?
#116
0D
0?
#121
0!
0C
0$
1D
b000000001 7
0>
1?
#126
0D
0?
#131
1D
b000000000 7
1J
1?
#136
0D
0?
#141
1!
0"
b00000111 B
1C
1$
1D
0G
b0110 I
0*
0J
b00000111 L
b00000111 1
b000000001 7
0<
1?
#146
0D
0?
#151
1D
b000000000 7
1>
1?
#156
0D
0?
#161
0!
0C
0$
1D
b000000001 7
0+
0>
1?
#166
0D
0?
#171
1D
b000000000 7
1J
1?
#176
0D
0?
#181
1!
b00001110 1
b00001110 B
1C
1$
1D
b000000001 7
b0101 I
0J
b00001110 L
1?
#186
0D
0?
#191
1D
b000000000 7
1>
1?
#196
0D
0?
#201
0!
0C
0$
1D
b000000001 7
0>
1?
#206
0D
0?
#211
1D
b000000000 7
1J
1?
#216
0D
0?
#221
1!
b00011100 1
b00011100 B
1C
1$
1D
b000000001 7
b0100 I
0J
b00011100 L
1?
#226
0D
0?
#231
1D
b000000000 7
1>
1?
#236
0D
0?
#241
0!
0C
0$
1D
b000000001 7
0>
1?
#246
0D
0?
#251
1D
b000000000 7
1J
1?
#256
0D
0?
#261
1!
b00111000 1
b00111000 B
1C
1$
1D
b000000001 7
b0011 I
0J
b00111000 L
1?
#266
0D
0?
#271
1D
b000000000 7
1>
1?
#276
0D
0?
#281
0!
0C
0$
1D
b000000001 7
0>
1?
#286
0D
0?
#291
1D
b000000000 7
1J
1?
#296
0D
0?
#301
1!
b01110000 1
b01110000 B
1C
1$
1D
b000000001 7
b0010 I
0J
b01110000 L
1?
#306
0D
0?
#311
1D
b000000000 7
1>
1?
#316
0D
0?
#321
0!
0C
0$
1D
b000000001 7
0>
1?
#326
0D
0?
#331
1D
b000000000 7
1J
1?
#336
0D
0?
#341
1!
1"
b11100000 B
1C
1$
1D
1G
b0001 I
1*
0J
b11100000 L
b11100000 1
b000000001 7
1<
1?
#346
0D
0?
#351
1D
b000000000 7
1>
1?
#356
0D
0?
#361
0!
0C
0$
1D
b000000001 7
1+
0>
1?
#366
0D
0?
#371
1D
b000000000 7
1J
1?
#376
0D
0?
#381
1!
b11000001 1
b11000001 B
1C
1$
1D
b000000001 7
b0000 I
0J
b11000001 L
1?
#386
0D
0?
#391
1A
1#
1D
1%
1&
1F
1H
0-
1.
1/
14
b000000000 7
18
1?
